COMP/STAT112 Notebook - Exercise 1: Where are my keys?
…
Part a

How many total student enrollments are there in each department? Order from high to low.

courses |> 
  group_by(dept) |> 
  summarize(total = sum(enroll)) |> 
  arrange(desc(total))

# A tibble: 40 × 2
   dept  total
   <chr> <int>
 1 d      3046
 2 j      2312
 3 O      2178
 4 M      2129
 5 m      2105
 6 D      2003
 7 W      1960
 8 q      1859
 9 k      1824
10 F      1587
# ℹ 30 more rows

Part b

What’s the grade-point average (GPA) for each student?

grades |> 
  left_join(gpa_conversion) |> 
  group_by(sid) |> 
  summarize(mean(gp, na.rm = TRUE))

Joining with `by = join_by(grade)`

# A tibble: 443 × 2
   sid    `mean(gp, na.rm = TRUE)`
   <chr>                     <dbl>
 1 S31185                     2.41
 2 S31188                     3.02
 3 S31191                     3.21
 4 S31194                     3.36
 5 S31197                     3.35
 6 S31200                     2.2 
 7 S31203                     3.82
 8 S31206                     2.46
 9 S31209                     3.13
10 S31212                     3.67
# ℹ 433 more rows
…
Joining with `by = join_by(grade)`
Joining with `by = join_by(sessionID)`

Warning in left_join(left_join(grades, gpa_conversion), courses): Detected an unexpected many-to-many relationship between `x` and `y`.
ℹ Row 64 of `x` matches multiple rows in `y`.
ℹ Row 807 of `y` matches multiple rows in `x`.
ℹ If a many-to-many relationship is expected, set `relationship =
  "many-to-many"` to silence this warning.

# A tibble: 364 × 2
   iid       gpa
   <chr>   <dbl>
 1 inst265  1.3 
 2 inst444  1.7 
 3 inst513  1.85
 4 inst200  2   
 5 inst507  2.2 
 6 inst445  2.3 
 7 inst420  2.6 
 8 inst262  2.65
 9 inst176  2.66
10 inst234  2.7 
# ℹ 354 more rows
…
